%YAML 1.1
%TAG !u! tag:unity3d.com,2011:
--- !u!1 &6710455156355069938
GameObject:
  m_ObjectHideFlags: 0
  m_CorrespondingSourceObject: {fileID: 0}
  m_PrefabInstance: {fileID: 0}
  m_PrefabAsset: {fileID: 0}
  serializedVersion: 6
  m_Component:
  - component: {fileID: 3255210640215080684}
  - component: {fileID: 6616785398231614451}
  m_Layer: 0
  m_Name: FoodSpawnerObject
  m_TagString: Untagged
  m_Icon: {fileID: 0}
  m_NavMeshLayer: 0
  m_StaticEditorFlags: 0
  m_IsActive: 1
--- !u!4 &3255210640215080684
Transform:
  m_ObjectHideFlags: 0
  m_CorrespondingSourceObject: {fileID: 0}
  m_PrefabInstance: {fileID: 0}
  m_PrefabAsset: {fileID: 0}
  m_GameObject: {fileID: 6710455156355069938}
  m_LocalRotation: {x: -0, y: -0, z: -0, w: 1}
  m_LocalPosition: {x: 0, y: 2, z: 0}
  m_LocalScale: {x: 1, y: 1, z: 1}
  m_Children: []
  m_Father: {fileID: 0}
  m_RootOrder: 0
  m_LocalEulerAnglesHint: {x: 0, y: 0, z: 0}
--- !u!114 &6616785398231614451
MonoBehaviour:
  m_ObjectHideFlags: 0
  m_CorrespondingSourceObject: {fileID: 0}
  m_PrefabInstance: {fileID: 0}
  m_PrefabAsset: {fileID: 0}
  m_GameObject: {fileID: 6710455156355069938}
  m_Enabled: 1
  m_EditorHideFlags: 0
  m_Script: {fileID: 11500000, guid: ddd7eeecb9b6b17839f09ddeecd79600, type: 3}
  m_Name: 
  m_EditorClassIdentifier: 
  food1:
    nrOnInit: 10
    energyGain: 1
    canEatIt:
    - prey
    spawnFrequency: 1
    prefab: {fileID: 822480114776911865, guid: 3f4f08888e6fe93a19730fc7a721ec04, type: 3}
    eatingActionNeeded: 0
  food2:
    nrOnInit: 0
    energyGain: 0
    canEatIt: []
    spawnFrequency: 0
    prefab: {fileID: 0}
    eatingActionNeeded: 0
  envRadius: 30
  staticNrOfFood: 1
  foodTypeList: []
  foodList: []
